566666666666667
500000000000007
500000000000007
500000212000007
500002111200007
500021121120007
502112212211207
532121333121237
541221121122147
500012222210007
500001212100007
500000121000007
500202020202007
501010101010107
500202020202007
500000000000007
500000000000007
500000000000007
500000000000007
500000000000007
500000000000007
500000000000007
500000000000007
500000000000007
000000000000000