566666666666667
500000020000007
500001000100007
500001121100007
500002121200007
500211121112007
521111122144127
500000121000007
521233212332127
502132111231207
500211444112007
502020000020207
500300121003007
511000000000117
500043212340007
544212444212447
500000000000007
500000000000007
500000000000007
500000000000007
500000000000007
500000000000007
500000000000007
500000000000007
000000000000000